
{
  "header": {
    "reportVersion": 2,
    "event": "Allocation failed - JavaScript heap out of memory",
    "trigger": "FatalError",
    "filename": "report.20210208.143610.12448.0.001.json",
    "dumpEventTime": "2021-02-08T14:36:10Z",
    "dumpEventTimeStamp": "1612775170634",
    "processId": 12448,
    "threadId": null,
    "cwd": "E:\\Rahul Projects\\MRR\\New MRR\\new-mrr-web",
    "commandLine": [
      "node",
      "C:\\Users\\E-Tech\\AppData\\Roaming\\npm\\\\node_modules\\@angular\\cli\\bin\\ng",
      "serve"
    ],
    "nodejsVersion": "v12.16.3",
    "wordSize": 64,
    "arch": "x64",
    "platform": "win32",
    "componentVersions": {
      "node": "12.16.3",
      "v8": "7.8.279.23-node.35",
      "uv": "1.34.2",
      "zlib": "1.2.11",
      "brotli": "1.0.7",
      "ares": "1.16.0",
      "modules": "72",
      "nghttp2": "1.40.0",
      "napi": "5",
      "llhttp": "2.0.4",
      "http_parser": "2.9.3",
      "openssl": "1.1.1g",
      "cldr": "36.0",
      "icu": "65.1",
      "tz": "2019c",
      "unicode": "12.1"
    },
    "release": {
      "name": "node",
      "lts": "Erbium",
      "headersUrl": "https://nodejs.org/download/release/v12.16.3/node-v12.16.3-headers.tar.gz",
      "sourceUrl": "https://nodejs.org/download/release/v12.16.3/node-v12.16.3.tar.gz",
      "libUrl": "https://nodejs.org/download/release/v12.16.3/win-x64/node.lib"
    },
    "osName": "Windows_NT",
    "osRelease": "10.0.19041",
    "osVersion": "Windows 10 Home",
    "osMachine": "x86_64",
    "cpus": [
      {
        "model": "Intel(R) Core(TM) i5-8250U CPU @ 1.60GHz",
        "speed": 1800,
        "user": 13865500,
        "nice": 0,
        "sys": 8510937,
        "idle": 229895328,
        "irq": 2195656
      },
      {
        "model": "Intel(R) Core(TM) i5-8250U CPU @ 1.60GHz",
        "speed": 1800,
        "user": 7725062,
        "nice": 0,
        "sys": 4016984,
        "idle": 240529437,
        "irq": 71500
      },
      {
        "model": "Intel(R) Core(TM) i5-8250U CPU @ 1.60GHz",
        "speed": 1800,
        "user": 19487828,
        "nice": 0,
        "sys": 8372015,
        "idle": 224411640,
        "irq": 125375
      },
      {
        "model": "Intel(R) Core(TM) i5-8250U CPU @ 1.60GHz",
        "speed": 1800,
        "user": 9055234,
        "nice": 0,
        "sys": 4290953,
        "idle": 238925296,
        "irq": 47828
      },
      {
        "model": "Intel(R) Core(TM) i5-8250U CPU @ 1.60GHz",
        "speed": 1800,
        "user": 14758656,
        "nice": 0,
        "sys": 5682703,
        "idle": 231830140,
        "irq": 86468
      },
      {
        "model": "Intel(R) Core(TM) i5-8250U CPU @ 1.60GHz",
        "speed": 1800,
        "user": 8349812,
        "nice": 0,
        "sys": 3403265,
        "idle": 240518375,
        "irq": 57218
      },
      {
        "model": "Intel(R) Core(TM) i5-8250U CPU @ 1.60GHz",
        "speed": 1800,
        "user": 13184093,
        "nice": 0,
        "sys": 5003812,
        "idle": 234083578,
        "irq": 81437
      },
      {
        "model": "Intel(R) Core(TM) i5-8250U CPU @ 1.60GHz",
        "speed": 1800,
        "user": 9620281,
        "nice": 0,
        "sys": 3472718,
        "idle": 239178484,
        "irq": 53031
      }
    ],
    "networkInterfaces": [
      {
        "name": "WiFi",
        "internal": false,
        "mac": "50:5b:c2:d1:42:4f",
        "address": "fd80::95fe:2d1b:8e88:3606",
        "netmask": "ffff:ffff:ffff:ffff::",
        "family": "IPv6",
        "scopeid": 0
      },
      {
        "name": "WiFi",
        "internal": false,
        "mac": "50:5b:c2:d1:42:4f",
        "address": "fd8c:15c7:57bb:a500:95fe:2d1b:8e88:3606",
        "netmask": "ffff:ffff:ffff:ffff::",
        "family": "IPv6",
        "scopeid": 0
      },
      {
        "name": "WiFi",
        "internal": false,
        "mac": "50:5b:c2:d1:42:4f",
        "address": "fd80::403d:f7a0:a805:44db",
        "netmask": "ffff:ffff:ffff:ffff:ffff:ffff:ffff:ffff",
        "family": "IPv6",
        "scopeid": 0
      },
      {
        "name": "WiFi",
        "internal": false,
        "mac": "50:5b:c2:d1:42:4f",
        "address": "fd8c:15c7:57bb:a500:403d:f7a0:a805:44db",
        "netmask": "ffff:ffff:ffff:ffff:ffff:ffff:ffff:ffff",
        "family": "IPv6",
        "scopeid": 0
      },
      {
        "name": "WiFi",
        "internal": false,
        "mac": "50:5b:c2:d1:42:4f",
        "address": "fe80::95fe:2d1b:8e88:3606",
        "netmask": "ffff:ffff:ffff:ffff::",
        "family": "IPv6",
        "scopeid": 22
      },
      {
        "name": "WiFi",
        "internal": false,
        "mac": "50:5b:c2:d1:42:4f",
        "address": "192.168.1.14",
        "netmask": "255.255.255.0",
        "family": "IPv4"
      },
      {
        "name": "Loopback Pseudo-Interface 1",
        "internal": true,
        "mac": "00:00:00:00:00:00",
        "address": "::1",
        "netmask": "ffff:ffff:ffff:ffff:ffff:ffff:ffff:ffff",
        "family": "IPv6",
        "scopeid": 0
      },
      {
        "name": "Loopback Pseudo-Interface 1",
        "internal": true,
        "mac": "00:00:00:00:00:00",
        "address": "127.0.0.1",
        "netmask": "255.0.0.0",
        "family": "IPv4"
      }
    ],
    "host": "DESKTOP-BG882H3"
  },
  "javascriptStack": {
    "message": "No stack.",
    "stack": [
      "Unavailable."
    ]
  },
  "nativeStack": [
    {
      "pc": "0x00007ff7336a2449",
      "symbol": "std::basic_ostream<char,std::char_traits<char> >::operator<<+11577"
    },
    {
      "pc": "0x00007ff7336a69a9",
      "symbol": "std::basic_ostream<char,std::char_traits<char> >::operator<<+29337"
    },
    {
      "pc": "0x00007ff7336a5828",
      "symbol": "std::basic_ostream<char,std::char_traits<char> >::operator<<+24856"
    },
    {
      "pc": "0x00007ff7337dd8c2",
      "symbol": "v8::base::CPU::has_sse+68658"
    },
    {
      "pc": "0x00007ff733ff9bbe",
      "symbol": "v8::Isolate::ReportExternalAllocationLimitReached+94"
    },
    {
      "pc": "0x00007ff733fe1c91",
      "symbol": "v8::SharedArrayBuffer::Externalize+833"
    },
    {
      "pc": "0x00007ff733eae1ec",
      "symbol": "v8::internal::Heap::EphemeronKeyWriteBarrierFromCode+1436"
    },
    {
      "pc": "0x00007ff733eb9420",
      "symbol": "v8::internal::Heap::ProtectUnprotectedMemoryChunks+1312"
    },
    {
      "pc": "0x00007ff733eb5f44",
      "symbol": "v8::internal::Heap::PageFlagsAreConsistent+3204"
    },
    {
      "pc": "0x00007ff733eab743",
      "symbol": "v8::internal::Heap::CollectGarbage+1283"
    },
    {
      "pc": "0x00007ff733ea9db4",
      "symbol": "v8::internal::Heap::AddRetainedMap+2452"
    },
    {
      "pc": "0x00007ff733ecafbd",
      "symbol": "v8::internal::Factory::NewFillerObject+61"
    },
    {
      "pc": "0x00007ff733c31871",
      "symbol": "v8::internal::interpreter::JumpTableTargetOffsets::iterator::operator=+1665"
    },
    {
      "pc": "0x00007ff734446c4d",
      "symbol": "v8::internal::SetupIsolateDelegate::SetupHeap+546637"
    },
    {
      "pc": "0x00007ff734447b7d",
      "symbol": "v8::internal::SetupIsolateDelegate::SetupHeap+550525"
    },
    {
      "pc": "0x00000059c2aa184b",
      "symbol": ""
    }
  ],
  "javascriptHeap": {
    "totalMemory": 2174906368,
    "totalCommittedMemory": 2174906368,
    "usedMemory": 2088823752,
    "availableMemory": 55804736,
    "memoryLimit": 2197815296,
    "heapSpaces": {
      "read_only_space": {
        "memorySize": 262144,
        "committedMemory": 262144,
        "capacity": 32808,
        "used": 32808,
        "available": 0
      },
      "new_space": {
        "memorySize": 33554432,
        "committedMemory": 33554432,
        "capacity": 16759296,
        "used": 822600,
        "available": 15936696
      },
      "old_space": {
        "memorySize": 1766469632,
        "committedMemory": 1766469632,
        "capacity": 1750707176,
        "used": 1750507360,
        "available": 199816
      },
      "code_space": {
        "memorySize": 8032256,
        "committedMemory": 8032256,
        "capacity": 6940512,
        "used": 6940512,
        "available": 0
      },
      "map_space": {
        "memorySize": 40112128,
        "committedMemory": 40112128,
        "capacity": 4708800,
        "used": 4708800,
        "available": 0
      },
      "large_object_space": {
        "memorySize": 325087232,
        "committedMemory": 325087232,
        "capacity": 324549656,
        "used": 324549656,
        "available": 0
      },
      "code_large_object_space": {
        "memorySize": 1388544,
        "committedMemory": 1388544,
        "capacity": 1262016,
        "used": 1262016,
        "available": 0
      },
      "new_large_object_space": {
        "memorySize": 0,
        "committedMemory": 0,
        "capacity": 16759296,
        "used": 0,
        "available": 16759296
      }
    }
  },
  "resourceUsage": {
    "userCpuSeconds": 953.312,
    "kernelCpuSeconds": 73.765,
    "cpuConsumptionPercent": 6.95852,
    "maxRss": 2253565952,
    "pageFaults": {
      "IORequired": 2799212,
      "IONotRequired": 0
    },
    "fsActivity": {
      "reads": 30088,
      "writes": 34
    }
  },
  "libuv": [
  ],
  "workers": [
  ],
  "environmentVariables": {
    "=E:": "E:\\Rahul Projects\\MRR\\New MRR\\new-mrr-web",
    "ALLUSERSPROFILE": "C:\\ProgramData",
    "APPDATA": "C:\\Users\\E-Tech\\AppData\\Roaming",
    "BROWSERSLIST_IGNORE_OLD_DATA": "1",
    "ChocolateyInstall": "C:\\ProgramData\\chocolatey",
    "ChocolateyLastPathUpdate": "132332482903457738",
    "CHROME_CRASHPAD_PIPE_NAME": "\\\\.\\pipe\\crashpad_4828_KQXPQCPVRYIYRVJJ",
    "CommonProgramFiles": "C:\\Program Files\\Common Files",
    "CommonProgramFiles(x86)": "C:\\Program Files (x86)\\Common Files",
    "CommonProgramW6432": "C:\\Program Files\\Common Files",
    "COMPUTERNAME": "DESKTOP-BG882H3",
    "ComSpec": "C:\\WINDOWS\\system32\\cmd.exe",
    "dp0": "C:\\Users\\E-Tech\\AppData\\Roaming\\npm\\",
    "DriverData": "C:\\Windows\\System32\\Drivers\\DriverData",
    "HOMEDRIVE": "C:",
    "HOMEPATH": "\\Users\\E-Tech",
    "LOCALAPPDATA": "C:\\Users\\E-Tech\\AppData\\Local",
    "LOGONSERVER": "\\\\DESKTOP-BG882H3",
    "NUMBER_OF_PROCESSORS": "8",
    "OneDrive": "C:\\Users\\E-Tech\\OneDrive",
    "ORIGINAL_XDG_CURRENT_DESKTOP": "undefined",
    "OS": "Windows_NT",
    "Path": "C:\\Program Files (x86)\\Common Files\\Oracle\\Java\\javapath;C:\\Python38\\Scripts\\;C:\\Python38\\;C:\\WINDOWS\\system32;C:\\WINDOWS;C:\\WINDOWS\\System32\\Wbem;C:\\WINDOWS\\System32\\WindowsPowerShell\\v1.0\\;C:\\ProgramData\\chocolatey\\bin;C:\\Program Files\\PuTTY\\;C:\\WINDOWS\\System32\\OpenSSH\\;C:\\Program Files\\heroku\\bin;C:\\Program Files\\Git\\cmd;C:\\Program Files\\Java\\jdk1.8.0_261\\bin;C:\\Program Files\\MongoDB\\Server\\3.2\\bin;C:\\Program Files\\nodejs\\;C:\\Users\\E-Tech\\AppData\\Local\\Microsoft\\WindowsApps;C:\\Program Files\\heroku\\bin;C:\\Users\\E-Tech\\AppData\\Local\\Programs\\Microsoft VS Code\\bin;C:\\Program Files\\Java\\jdk1.8.0_261\\bin;C:\\Program Files\\MongoDB\\Server\\3.2\\bin;C:\\Users\\E-Tech\\AppData\\Roaming\\npm",
    "PATHEXT": ".COM;.EXE;.BAT;.CMD;.VBS;.VBE;.JSE;.WSF;.WSH;.MSC",
    "PROCESSOR_ARCHITECTURE": "AMD64",
    "PROCESSOR_IDENTIFIER": "Intel64 Family 6 Model 142 Stepping 10, GenuineIntel",
    "PROCESSOR_LEVEL": "6",
    "PROCESSOR_REVISION": "8e0a",
    "ProgramData": "C:\\ProgramData",
    "ProgramFiles": "C:\\Program Files",
    "ProgramFiles(x86)": "C:\\Program Files (x86)",
    "ProgramW6432": "C:\\Program Files",
    "PROMPT": "$P$G",
    "PSModulePath": "C:\\Program Files\\WindowsPowerShell\\Modules;C:\\WINDOWS\\system32\\WindowsPowerShell\\v1.0\\Modules",
    "PUBLIC": "C:\\Users\\Public",
    "SESSIONNAME": "Console",
    "SystemDrive": "C:",
    "SystemRoot": "C:\\WINDOWS",
    "TEMP": "C:\\Users\\E-Tech\\AppData\\Local\\Temp",
    "TMP": "C:\\Users\\E-Tech\\AppData\\Local\\Temp",
    "USERDOMAIN": "DESKTOP-BG882H3",
    "USERDOMAIN_ROAMINGPROFILE": "DESKTOP-BG882H3",
    "USERNAME": "E-Tech",
    "USERPROFILE": "C:\\Users\\E-Tech",
    "windir": "C:\\WINDOWS",
    "TERM_PROGRAM": "vscode",
    "TERM_PROGRAM_VERSION": "1.53.0",
    "LANG": "en_US.UTF-8",
    "COLORTERM": "truecolor",
    "VSCODE_GIT_IPC_HANDLE": "\\\\.\\pipe\\vscode-git-57a5ee0f81-sock",
    "GIT_ASKPASS": "c:\\Users\\E-Tech\\AppData\\Local\\Programs\\Microsoft VS Code\\resources\\app\\extensions\\git\\dist\\askpass.sh",
    "VSCODE_GIT_ASKPASS_NODE": "C:\\Users\\E-Tech\\AppData\\Local\\Programs\\Microsoft VS Code\\Code.exe",
    "VSCODE_GIT_ASKPASS_MAIN": "c:\\Users\\E-Tech\\AppData\\Local\\Programs\\Microsoft VS Code\\resources\\app\\extensions\\git\\dist\\askpass-main.js",
    "_prog": "node"
  },
  "sharedObjects": [
    "C:\\Program Files\\nodejs\\node.exe",
    "C:\\WINDOWS\\SYSTEM32\\ntdll.dll",
    "C:\\WINDOWS\\System32\\KERNEL32.DLL",
    "C:\\WINDOWS\\System32\\KERNELBASE.dll",
    "C:\\WINDOWS\\System32\\WS2_32.dll",
    "C:\\WINDOWS\\System32\\RPCRT4.dll",
    "C:\\WINDOWS\\SYSTEM32\\dbghelp.dll",
    "C:\\WINDOWS\\System32\\PSAPI.DLL",
    "C:\\WINDOWS\\System32\\ucrtbase.dll",
    "C:\\WINDOWS\\System32\\ADVAPI32.dll",
    "C:\\WINDOWS\\System32\\msvcrt.dll",
    "C:\\WINDOWS\\SYSTEM32\\IPHLPAPI.DLL",
    "C:\\WINDOWS\\SYSTEM32\\USERENV.dll",
    "C:\\WINDOWS\\System32\\sechost.dll",
    "C:\\WINDOWS\\System32\\USER32.dll",
    "C:\\WINDOWS\\System32\\win32u.dll",
    "C:\\WINDOWS\\System32\\GDI32.dll",
    "C:\\WINDOWS\\System32\\gdi32full.dll",
    "C:\\WINDOWS\\System32\\msvcp_win.dll",
    "C:\\WINDOWS\\System32\\CRYPT32.dll",
    "C:\\WINDOWS\\System32\\bcrypt.dll",
    "C:\\WINDOWS\\SYSTEM32\\WINMM.dll",
    "C:\\WINDOWS\\System32\\IMM32.DLL",
    "C:\\WINDOWS\\SYSTEM32\\powrprof.dll",
    "C:\\WINDOWS\\SYSTEM32\\UMPDC.dll",
    "C:\\WINDOWS\\SYSTEM32\\CRYPTBASE.DLL",
    "C:\\WINDOWS\\system32\\uxtheme.dll",
    "C:\\WINDOWS\\System32\\combase.dll",
    "C:\\WINDOWS\\system32\\mswsock.dll",
    "C:\\WINDOWS\\SYSTEM32\\kernel.appcore.dll",
    "C:\\WINDOWS\\System32\\bcryptprimitives.dll",
    "C:\\WINDOWS\\System32\\NSI.dll",
    "C:\\WINDOWS\\SYSTEM32\\dhcpcsvc6.DLL",
    "C:\\WINDOWS\\SYSTEM32\\dhcpcsvc.DLL",
    "C:\\WINDOWS\\SYSTEM32\\DNSAPI.dll",
    "C:\\Windows\\System32\\rasadhlp.dll",
    "C:\\WINDOWS\\System32\\fwpuclnt.dll",
    "\\\\?\\E:\\Rahul Projects\\MRR\\New MRR\\new-mrr-web\\node_modules\\node-sass\\vendor\\win32-x64-72\\binding.node",
    "C:\\WINDOWS\\system32\\napinsp.dll",
    "C:\\WINDOWS\\system32\\pnrpnsp.dll",
    "C:\\WINDOWS\\system32\\wshbth.dll",
    "C:\\WINDOWS\\system32\\NLAapi.dll",
    "C:\\WINDOWS\\System32\\winrnr.dll"
  ]
}